[
    {
        "slNo": "1",
        "name": "BB"
    },
    {
        "slNo": "2",
        "name": "BSL"
    },
    {
        "slNo": "3",
        "name": "NGP"
    },
    {
        "slNo": "4",
        "name": "PUNE"
    },
    {
        "slNo": "5",
        "name": "SUR"
    },
    {
        "slNo": "6",
        "name": "KUR"
    },
    {
        "slNo": "7",
        "name": "SBP"
    },
    {
        "slNo": "8",
        "name": "WAT"
    },
    {
        "slNo": "9",
        "name": "DNR"
    },
    {
        "slNo": "10",
        "name": "MGS"
    },
    {
        "slNo": "11",
        "name": "DHN"
    },
    {
        "slNo": "12",
        "name": "SEE"
    },
    {
        "slNo": "13",
        "name": "SPJ"
    },
    {
        "slNo": "14",
        "name": "ASN"
    },
    {
        "slNo": "15",
        "name": "HWH"
    },
    {
        "slNo": "16",
        "name": "MLDT"
    },
    {
        "slNo": "17",
        "name": "SDAH"
    },
    {
        "slNo": "18",
        "name": "KAWR"
    },
    {
        "slNo": "19",
        "name": "RN"
    },
    {
        "slNo": "20",
        "name": "AGRA"
    },
    {
        "slNo": "21",
        "name": "ALD"
    },
    {
        "slNo": "22",
        "name": "JHS"
    },
    {
        "slNo": "23",
        "name": "BSB"
    },
    {
        "slNo": "24",
        "name": "LJN"
    },
    {
        "slNo": "25",
        "name": "IZN"
    },
    {
        "slNo": "26",
        "name": "APDJ"
    },
    {
        "slNo": "27",
        "name": "KIR"
    },
    {
        "slNo": "28",
        "name": "LMG"
    },
    {
        "slNo": "29",
        "name": "RNY"
    },
    {
        "slNo": "30",
        "name": "DLI"
    },
    {
        "slNo": "31",
        "name": "FZR"
    },
    {
        "slNo": "32",
        "name": "LKO"
    },
    {
        "slNo": "33",
        "name": "MB"
    },
    {
        "slNo": "34",
        "name": "UMB"
    },
    {
        "slNo": "35",
        "name": "AII"
    },
    {
        "slNo": "36",
        "name": "BKN"
    },
    {
        "slNo": "37",
        "name": "JP"
    },
    {
        "slNo": "38",
        "name": "JU"
    },
    {
        "slNo": "39",
        "name": "BZA"
    },
    {
        "slNo": "40",
        "name": "GNT"
    },
    {
        "slNo": "41",
        "name": "GTL"
    },
    {
        "slNo": "42",
        "name": "HYB"
    },
    {
        "slNo": "43",
        "name": "NED"
    },
    {
        "slNo": "44",
        "name": "SC"
    },
    {
        "slNo": "45",
        "name": "BSP"
    },
    {
        "slNo": "46",
        "name": "NAG"
    },
    {
        "slNo": "47",
        "name": "R"
    },
    {
        "slNo": "48",
        "name": "ADRA"
    },
    {
        "slNo": "49",
        "name": "CKP"
    },
    {
        "slNo": "50",
        "name": "KGP"
    },
    {
        "slNo": "51",
        "name": "RNC"
    },
    {
        "slNo": "52",
        "name": "MAS"
    },
    {
        "slNo": "53",
        "name": "MDU"
    },
    {
        "slNo": "54",
        "name": "PGT"
    },
    {
        "slNo": "55",
        "name": "SA"
    },
    {
        "slNo": "56",
        "name": "TPJ"
    },
    {
        "slNo": "57",
        "name": "TVC"
    },
    {
        "slNo": "58",
        "name": "MYS"
    },
    {
        "slNo": "59",
        "name": "SBC"
    },
    {
        "slNo": "60",
        "name": "UBL"
    },
    {
        "slNo": "61",
        "name": "BPL"
    },
    {
        "slNo": "62",
        "name": "JBP"
    },
    {
        "slNo": "63",
        "name": "KOTA"
    },
    {
        "slNo": "64",
        "name": "ADI"
    },
    {
        "slNo": "65",
        "name": "BCT"
    },
    {
        "slNo": "66",
        "name": "BRC"
    },
    {
        "slNo": "67",
        "name": "BVC"
    },
    {
        "slNo": "68",
        "name": "RJT"
    },
    {
        "slNo": "69",
        "name": "RTM"
    }
]